{
    "scripts": [
        "create path (sling:OrderedFolder) /content/dam/academy-brian",
        "create path (nt:unstructured) /content/dam/academy-brian/jcr:content",
        "set properties on /content/dam/academy-brian/jcr:content\n  set cq:conf{String} to /conf/academy-brian\n  set jcr:title{String} to \"Academy Brian\"\nend"
    ]
}
